Place,Name,Sex,Equipment,Division,BodyweightKg,WeightClassKg,Squat1Kg,Squat2Kg,Squat3Kg,Best3SquatKg,Bench1Kg,Bench2Kg,Bench3Kg,Best3BenchKg,Deadlift1Kg,Deadlift2Kg,Deadlift3Kg,Best3DeadliftKg,TotalKg,Event,BirthDate
1,Hazel Chin,F,Raw,Junior,49.3,52,60,67.5,72.5,72.5,40,-47.5,47.5,47.5,85,95,102.5,102.5,222.5,SBD,
1,Trecia Koh,F,Raw,Junior,53.55,57,-60,60,67.5,67.5,-40,42.5,-45,42.5,100,110,115,115,225,SBD,
1,Norliyana Jumahat,F,Raw,Master 1,66.8,69,95,100,105,105,47.5,50,-52.5,50,120,127.5,132.5,132.5,287.5,SBD,
1,Laura Styrlund,F,Raw,Master 2,81.1,84,-125,125,-130,125,80,85,87.5,87.5,145,152.5,160,160,372.5,SBD,
1,Esther Ng,F,Raw,Open,56.15,57,80,-90,90,90,47.5,52.5,55,55,100,107.5,115,115,260,SBD,
1,Zi Ting Leow,F,Raw,Open,67.05,69,110,117.5,-125,117.5,80,-85,-85,80,125,135,145,145,342.5,SBD,
1,Suganthi Mani Maran,F,Raw,Open,73.2,76,125,130,-135,130,75,77.5,80,80,180,-190,-190,180,390,SBD,
1,Veron Wang,F,Raw,Open,81.05,84,-167.5,167.5,175.5,175.5,82.5,-86,-86,82.5,162.5,170,-183,170,428,SBD,
1,Syamim Rosman,M,Raw,Junior,47.7,53,120,-127.5,127.5,127.5,75,82.5,88.5,88.5,130,135,145,145,361,SBD,
1,Sheng Lim,M,Raw,Junior,58.35,59,-142.5,142.5,152.5,152.5,112.5,118.5,120,120,145,165,-185,165,437.5,SBD,
1,Clarence Oh,M,Raw,Junior,65.75,66,180,192.5,200,200,117.5,-127.5,-127.5,117.5,212.5,227.5,235,235,552.5,SBD,
2,Juven Chew,M,Raw,Junior,64.05,66,130,140,147.5,147.5,80,85,90,90,170,180,-192.5,180,417.5,SBD,
3,Nicolas Koh,M,Raw,Junior,63.45,66,135,145,152.5,152.5,65,72.5,75,75,157.5,167.5,-172.5,167.5,395,SBD,
1,Darren Hia,M,Raw,Junior,73,74,185,197.5,207.5,207.5,137.5,145,155,155,205,220,232.5,232.5,595,SBD,
2,Jordan Soo,M,Raw,Junior,71.6,74,192.5,200,-205,200,112.5,117.5,120,120,230,242.5,-247.5,242.5,562.5,SBD,
3,Luke Lopez Shen Yi,M,Raw,Junior,73.2,74,185,192.5,-200,192.5,-115,-115,115,115,195,-200,-200,195,502.5,SBD,
4,Syafiq Jefri,M,Raw,Junior,72.6,74,150,-160,160,160,100,105,-110,105,175,177.5,190,190,455,SBD,
5,Jason Tan,M,Raw,Junior,69.5,74,137.5,145,152.5,152.5,102.5,-107.5,110,110,175,185,-190,185,447.5,SBD,
1,Phone Khant Paing,M,Raw,Junior,82.15,83,190,197.5,205,205,120,125,-132.5,125,245,252.5,260,260,590,SBD,
2,Luqman Hakim Bin Taiyeb,M,Raw,Junior,82.45,83,180,187.5,192.5,192.5,145,-152.5,-152.5,145,215,225,232.5,232.5,570,SBD,
1,Keen Mun Wong,M,Raw,Master 1,82.9,83,140,160,185.5,185.5,105,115,120,120,170,190,205,205,510.5,SBD,
1,Zack Toh Cheng Leong,M,Raw,Master 2,64.2,66,140,150,160.5,160.5,100,112.5,-120,112.5,170,190,-195.5,190,463,SBD,
1,Andrew Robertson,M,Raw,Master 2,90.05,93,-147.5,152.5,-160,152.5,102.5,110,-117.5,110,165,177.5,185,185,447.5,SBD,
1,Jerome Tan,M,Raw,Open,73.1,74,190,200,210,210,145,160,-165,160,200,220,235,235,605,SBD,
2,Wesley Foo,M,Raw,Open,70.15,74,205,220,-227.5,220,117.5,125,127.5,127.5,235,255,-257.5,255,602.5,SBD,
3,Michael Lim,M,Raw,Open,72.62,74,-205,205,-215,205,120,125,130,130,222.5,230,-232.5,230,565,SBD,
4,Nicholas Kwan,M,Raw,Open,71.75,74,170,180,185,185,120,125,127.5,127.5,210,220,230,230,542.5,SBD,
5,Mohd Sarhan Bin Hamed,M,Raw,Open,73.9,74,150,160,-170,160,105,110,115,115,200,220,225,225,500,SBD,
6,Victor Ang,M,Raw,Open,73.95,74,175,182.5,-190,182.5,100,105,107.5,107.5,200,210,-212.5,210,500,SBD,
7,Iman Friday,M,Raw,Open,73.55,74,-175,-175,175,175,80,90,95,95,180,190,200,200,470,SBD,
1,Muhammad Nur Syafiee Bin Ayub,M,Raw,Open,82.2,83,187.5,197.5,-205,197.5,127.5,135,140,140,220,232.5,240,240,577.5,SBD,
2,Joel Gwey,M,Raw,Open,80.8,83,160,172.5,180,180,117.5,125,-127.5,125,225,235,-240,235,540,SBD,
1,Muhammad Fadlullah,M,Raw,Open,89,93,260,275,280,280,180,192.5,-195,192.5,-290,-290,290,290,762.5,SBD,
2,Zhong Wei Goh,M,Raw,Open,92.9,93,197.5,205,215,215,135,145,-150,145,225,237.5,-250,237.5,597.5,SBD,
3,Jaron Tay,M,Raw,Open,89.95,93,170,185,202.5,202.5,120,130,-140,130,180,200,215,215,547.5,SBD,
4,Kai Yin Law,M,Raw,Open,91.65,93,182.5,-195,205,205,110,120,127.5,127.5,185,200,210,210,542.5,SBD,
1,Minhyoung Lee,M,Raw,Open,99.7,105,260,265,267.5,267.5,150,155,-157.5,155,240,245,-250,245,667.5,SBD,
2,Arthur Deschamps,M,Raw,Open,103.95,105,185,200,210,210,125,132.5,140,140,235,252.5,257.5,257.5,607.5,SBD,
3,Shifaul Rosman,M,Raw,Open,98.8,105,200,210,217.5,217.5,140,145,-150,145,237.5,242.5,-245,242.5,605,SBD,
4,Benny Tan,M,Raw,Open,98.8,105,205,220,227.5,227.5,130,135,140,140,200,215,-230,215,582.5,SBD,
5,Justin Wong,M,Raw,Open,93.15,105,175,180,185,185,130,-135,135,135,240,250,-262.5,250,570,SBD,
1,Ayan Kamath Mehra,M,Raw,Sub Junior,58.55,59,95,102.5,-110,102.5,55,60,-62.5,60,125,135,145,145,307.5,SBD,
G,Hilmi Hayan,M,Raw,Sub Junior,84.15,93,220,-230,-230,220,130,145,-150,145,-220,-230,230,230,595,SBD,
