Place,Name,Sex,Event,Division,WeightClassKg,Equipment,BirthYear,Team,State,BodyweightKg,Squat1Kg,Squat2Kg,Squat3Kg,Best3SquatKg,Bench1Kg,Bench2Kg,Bench3Kg,Best3BenchKg,Deadlift1Kg,Deadlift2Kg,Deadlift3Kg,Best3DeadliftKg,TotalKg,Age,BirthDate
1,Rachel Frese,F,B,FR-O,75,Raw,1997,,KS,72.5,,,,,-70,70,77.5,77.5,,,,,77.5,,
1,Joe Scherer,M,B,MR-O,110,Raw,1957,,MO,107.9,,,,,95,97.5,-100,97.5,,,,,97.5,,
1,Rilee Stewart,F,SBD,FR-Jr,56,Raw,2001,,MO,55.2,95,100,-105,100,72.5,75,77.5,77.5,137.5,-145,145,145,322.5,,
1,Jenna Perry,F,SBD,FR-Jr,60,Raw,2002,,HI,59,107.5,115,122.5,122.5,57.5,60,-65,60,107.5,117.5,122.5,122.5,305,,
2,Willa Wu,F,SBD,FR-Jr,60,Raw,2000,,MO,58.8,82.5,87.5,92.5,92.5,57.5,60,62.5,62.5,112.5,120,-125,120,275,,
1,Jamie Hock,F,SBD,FR-Jr,75,Raw,2001,,MO,73,150,155,-160,155,70,72.5,-75,72.5,145,152.5,157.5,157.5,385,,
2,Erika Adjei,F,SBD,FR-Jr,75,Raw,2002,,TX,69.9,100,107.5,112.5,112.5,37.5,42.5,47.5,47.5,102.5,112.5,122.5,122.5,282.5,,
1,Jordanne Panton,F,SBD,FR-Jr,67.5,Raw,1999,,WI,67,140,150,162.5,162.5,77.5,85,90,90,190,205,220,220,472.5,,
2,Wendy Guzman,F,SBD,FR-Jr,67.5,Raw,2002,,KS,66.4,105,112.5,120,120,50,55,-60,55,117.5,125,-132.5,125,300,,
DQ,Samantha Weimer,F,SBD,FR-Jr,82.5,Raw,2001,,IL,80.1,75,-77.5,80,80,-45,-47.5,-47.5,,105,-115,117.5,117.5,,,
1,Heather Gurnow,F,SBD,FR-M1a,90,Raw,1982,,MO,89.5,112.5,122.5,137.5,137.5,62.5,70,-75,70,147.5,157.5,165,165,372.5,,
1,Kelly Matteson,F,SBD,FR-M1b,100+,Raw,1973,,MO,115,-72.5,72.5,-85,72.5,55,-62.5,62.5,62.5,87.5,-92.5,92.5,92.5,227.5,,
1,Kendra Strong,F,SBD,FR-M1b,82.5,Raw,1974,,IL,80.6,127.5,137.5,145,145,75,77.5,82.5,82.5,-140,147.5,-157.5,147.5,375,,
1,Sandra Juhala,F,SBD,FR-M2a,100,Raw,1968,,MO,93.5,105,115,125,125,65,70,-72.5,70,135,145,152.5,152.5,347.5,,
1,Jennifer Hampsten,F,SBD,FR-M2a,100+,Raw,1968,,IL,107.8,62.5,72.5,80,80,47.5,52.5,-55,52.5,90,100,107.5,107.5,240,,
1,Dede Catsavis,F,SBD,FR-M3a,60,Raw,1959,,MO,57.6,82.5,87.5,90,90,37.5,40,42.5,42.5,97.5,105,110,110,242.5,,
1,Sara Kotthoff,F,SBD,FR-M3a,90,Raw,1962,,MO,88.8,-72.5,75,80,80,35,40,42.5,42.5,82.5,90,-97.5,90,212.5,,
1,Jai-Jai Goldstein,F,SBD,FR-M3b,100,Raw,1957,,MO,93.7,50,57.5,65,65,42.5,47.5,-50,47.5,107.5,112.5,115,115,227.5,,
1,Alexandra Adams,F,SBD,FR-O,56,Raw,1988,,MO,54.5,127.5,135,140,140,67.5,72.5,75,75,145,-155,155,155,370,,
2,Rilee Stewart,F,SBD,FR-O,56,Raw,2001,,MO,55.2,95,100,-105,100,72.5,75,77.5,77.5,137.5,-145,145,145,322.5,,
3,Lydia Volner,F,SBD,FR-O,56,Raw,2004,,MO,52.5,87.5,92.5,97.5,97.5,47.5,52.5,55,55,105,112.5,117.5,117.5,270,,
4,Sophie Lin,F,SBD,FR-O,56,Raw,2004,,MO,54.5,72.5,77.5,-80,77.5,37.5,-40,42.5,42.5,62.5,67.5,72.5,72.5,192.5,,
5,Olivia Pierre-Louis,F,SBD,FR-O,56,Raw,2003,,OH,55.5,50,57.5,67.5,67.5,-25,32.5,37.5,37.5,50,60,72.5,72.5,177.5,,
1,Jenna Perry,F,SBD,FR-O,60,Raw,2002,,HI,59,107.5,115,122.5,122.5,57.5,60,-65,60,107.5,117.5,122.5,122.5,305,,
2,Stephanie Xian,F,SBD,FR-O,60,Raw,2003,,TN,58.6,102.5,120,125,125,40,45,-50,45,97.5,110,120,120,290,,
3,Willa Wu,F,SBD,FR-O,60,Raw,2000,,MO,58.8,82.5,87.5,92.5,92.5,57.5,60,62.5,62.5,112.5,120,-125,120,275,,
4,Dede Catsavis,F,SBD,FR-O,60,Raw,1959,,MO,57.6,82.5,87.5,90,90,37.5,40,42.5,42.5,97.5,105,110,110,242.5,,
5,Rachel Brant,F,SBD,FR-O,60,Raw,1993,,MO,59.5,-60,60,65,65,37.5,40,45,45,82.5,85,-87.5,85,195,,
1,Christina Linegar,F,SBD,FR-O,75,Raw,1992,Team GPT,AR,70.2,147.5,157.5,160,160,72.5,77.5,-82.5,77.5,162.5,172.5,180,180,417.5,,
2,Jamie Hock,F,SBD,FR-O,75,Raw,2001,,MO,73,150,155,-160,155,70,72.5,-75,72.5,145,152.5,157.5,157.5,385,,
3,Danielle Campbell,F,SBD,FR-O,75,Raw,1990,,MO,73.3,125,132.5,137.5,137.5,72.5,77.5,80,80,150,160,167.5,167.5,385,,
4,Daiszha Cooley,F,SBD,FR-O,75,Raw,1996,,MO,73.3,110,117.5,-125,117.5,75,82.5,-90,82.5,125,137.5,-150,137.5,337.5,,
5,Erika Adjei,F,SBD,FR-O,75,Raw,2002,,TX,69.9,100,107.5,112.5,112.5,37.5,42.5,47.5,47.5,102.5,112.5,122.5,122.5,282.5,,
1,Heather Gurnow,F,SBD,FR-O,90,Raw,1982,,MO,89.5,112.5,122.5,137.5,137.5,62.5,70,-75,70,147.5,157.5,165,165,372.5,,
2,Sydney Feager,F,SBD,FR-O,90,Raw,2005,,MO,85.3,140,142.5,147.5,147.5,52.5,55,57.5,57.5,152.5,155,160,160,365,,
3,Sara Kotthoff,F,SBD,FR-O,90,Raw,1962,,MO,88.8,-72.5,75,80,80,35,40,42.5,42.5,82.5,90,-97.5,90,212.5,,
1,Sandra Juhala,F,SBD,FR-O,100,Raw,1968,,MO,93.5,105,115,125,125,65,70,-72.5,70,135,145,152.5,152.5,347.5,,
2,Jai-Jai Goldstein,F,SBD,FR-O,100,Raw,1957,,MO,93.7,50,57.5,65,65,42.5,47.5,-50,47.5,107.5,112.5,115,115,227.5,,
3,Harmonie Givens,F,SBD,FR-O,100,Raw,2003,,MO,96.4,45,-50,52.5,52.5,35,40,42.5,42.5,60,70,75,75,170,,
1,Jennifer Hampsten,F,SBD,FR-O,100+,Raw,1968,,IL,107.8,62.5,72.5,80,80,47.5,52.5,-55,52.5,90,100,107.5,107.5,240,,
2,Kelly Matteson,F,SBD,FR-O,100+,Raw,1973,,MO,115,-72.5,72.5,-85,72.5,55,-62.5,62.5,62.5,87.5,-92.5,92.5,92.5,227.5,,
1,Jordanne Panton,F,SBD,FR-O,67.5,Raw,1999,,WI,67,140,150,162.5,162.5,77.5,85,90,90,190,205,220,220,472.5,,
2,MaryAnn Romagna,F,SBD,FR-O,67.5,Raw,2004,,WI,67.4,110,117.5,122.5,122.5,55,60,-62.5,60,160,172.5,182.5,182.5,365,,
3,Maggie Hollander,F,SBD,FR-O,67.5,Raw,1993,,MO,66.3,127.5,-137.5,137.5,137.5,80,82.5,-85,82.5,122.5,-135,-135,122.5,342.5,,
4,Alisha Simonin,F,SBD,FR-O,67.5,Raw,1994,,MO,63.9,117.5,-127.5,-127.5,117.5,72.5,77.5,82.5,82.5,130,137.5,-145,137.5,337.5,,
5,Wendy Guzman,F,SBD,FR-O,67.5,Raw,2002,,KS,66.4,105,112.5,120,120,50,55,-60,55,117.5,125,-132.5,125,300,,
1,Kendra Strong,F,SBD,FR-O,82.5,Raw,1974,,IL,80.6,127.5,137.5,145,145,75,77.5,82.5,82.5,-140,147.5,-157.5,147.5,375,,
2,Amelia Hines,F,SBD,FR-O,82.5,Raw,2004,,MI,81.6,97.5,-105,110,110,60,67.5,-72.5,67.5,120,130,135,135,312.5,,
DQ,Samantha Weimer,F,SBD,FR-O,82.5,Raw,2001,,IL,80.1,75,-77.5,80,80,-45,-47.5,-47.5,,105,-115,117.5,117.5,,,
1,Sydney Feager,F,SBD,FR-T2,90,Raw,2005,,MO,85.3,140,142.5,147.5,147.5,52.5,55,57.5,57.5,152.5,155,160,160,365,,
1,MaryAnn Romagna,F,SBD,FR-T2,67.5,Raw,2004,,WI,67.4,110,117.5,122.5,122.5,55,60,-62.5,60,160,172.5,182.5,182.5,365,,
1,Lydia Volner,F,SBD,FR-T3,56,Raw,2004,,MO,52.5,87.5,92.5,97.5,97.5,47.5,52.5,55,55,105,112.5,117.5,117.5,270,,
2,Sophie Lin,F,SBD,FR-T3,56,Raw,2004,,MO,54.5,72.5,77.5,-80,77.5,37.5,-40,42.5,42.5,62.5,67.5,72.5,72.5,192.5,,
3,Olivia Pierre-Louis,F,SBD,FR-T3,56,Raw,2003,,OH,55.5,50,57.5,67.5,67.5,-25,32.5,37.5,37.5,50,60,72.5,72.5,177.5,,
1,Stephanie Xian,F,SBD,FR-T3,60,Raw,2003,,TN,58.6,102.5,120,125,125,40,45,-50,45,97.5,110,120,120,290,,
1,Harmonie Givens,F,SBD,FR-T3,100,Raw,2003,,MO,96.4,45,-50,52.5,52.5,35,40,42.5,42.5,60,70,75,75,170,,
1,Amelia Hines,F,SBD,FR-T3,82.5,Raw,2004,,MI,81.6,97.5,-105,110,110,60,67.5,-72.5,67.5,120,130,135,135,312.5,,
1,Henry Xiao,M,SBD,MR-Jr,60,Raw,2002,,MO,58.95,62.5,67.5,75,75,65,70,72.5,72.5,85,97.5,-107.5,97.5,245,,
1,Samuel Wheeler,M,SBD,MR-Jr,75,Raw,2001,,IL,74.35,215,220,227.5,227.5,-125,127.5,-132.5,127.5,260,-265,-265,260,615,,
2,Brett Price,M,SBD,MR-Jr,75,Raw,1999,,IL,72.35,170,182.5,187.5,187.5,102.5,-110,110,110,215,225,235,235,532.5,,
3,Austin Bievenue,M,SBD,MR-Jr,75,Raw,2002,,MO,72.8,160,172.5,182.5,182.5,115,125,132.5,132.5,170,185,192.5,192.5,507.5,,
4,Nicholas Ge,M,SBD,MR-Jr,75,Raw,2002,,MO,72.3,170,182.5,-187.5,182.5,95,100,102.5,102.5,205,215,-225,215,500,,
5,Andrew Allen,M,SBD,MR-Jr,75,Raw,2001,,IL,74.75,150,160,167.5,167.5,112.5,-117.5,,112.5,200,210,-220,210,490,,
6,Aaron Wells,M,SBD,MR-Jr,75,Raw,2002,,IL,70.5,152.5,157.5,165,165,97.5,102.5,-105,102.5,202.5,-212.5,-212.5,202.5,470,,
7,Blake Heller,M,SBD,MR-Jr,75,Raw,2002,,MO,71,150,160,165,165,95,100,102.5,102.5,162.5,175,187.5,187.5,455,,
8,Will Austin,M,SBD,MR-Jr,75,Raw,2002,,MO,71.3,137.5,147.5,157.5,157.5,105,112.5,122.5,122.5,127.5,140,160,160,440,,
9,Jordan Bradstreet,M,SBD,MR-Jr,75,Raw,2002,,OH,72.4,137.5,145,-150,145,70,75,-77.5,75,150,162.5,175,175,395,,
10,Geoffrey Lien,M,SBD,MR-Jr,75,Raw,2002,,NY,69.8,110,117.5,122.5,122.5,77.5,80,85,85,140,150,157.5,157.5,365,,
1,Jason Burns,M,SBD,MR-Jr,90,Raw,2001,,IL,87.9,212.5,222.5,230,230,107.5,112.5,-117.5,112.5,257.5,265,272.5,272.5,615,,
2,Samuel Cohen,M,SBD,MR-Jr,90,Raw,2001,,MO,86.9,170,180,-185,180,122.5,130,137.5,137.5,170,182.5,192.5,192.5,510,,
1,Braden Hasty,M,SBD,MR-Jr,100,Raw,2000,,IL,94.8,210,230,237.5,237.5,135,145,155,155,225,240,250,250,642.5,,
2,Matthew Gremaud,M,SBD,MR-Jr,100,Raw,2002,,MO,93.6,165,-177.5,182.5,182.5,105,112.5,120,120,205,220,235,235,537.5,,
3,Jacob Ray,M,SBD,MR-Jr,100,Raw,2000,,IL,91.2,-172.5,185,195,195,130,140,-150,140,180,187.5,200,200,535,,
1,Connor Parks,M,SBD,MR-Jr,110,Raw,2001,,MO,108.3,275,285,-292.5,285,177.5,187.5,-195,187.5,285,300,317.5,317.5,790,,
2,Caleb Rice,M,SBD,MR-Jr,110,Raw,2000,,IL,107.05,210,227.5,232.5,232.5,-135,147.5,-157.5,147.5,220,232.5,240,240,620,,
3,Victor White,M,SBD,MR-Jr,110,Raw,2001,,MO,106.8,180,195,-210,195,140,147.5,-155,147.5,235,255,-265,255,597.5,,
4,Owen Reinhart,M,SBD,MR-Jr,110,Raw,2001,,MO,105.95,117.5,-127.5,132.5,132.5,-105,110,-120,110,145,170,182.5,182.5,425,,
DQ,Tyler Davis,M,SBD,MR-Jr,110,Raw,1999,,IL,106.5,-295,305,-320,305,-170,-175,-175,,295,305,315,315,,,
1,Joseph Brumleve,M,SBD,MR-Jr,125,Raw,2001,,IL,118.8,210,225,-235,225,145,155,-165,155,235,250,265,265,645,,
1,Landyn Shonk,M,SBD,MR-Jr,67.5,Raw,2001,,IL,67.2,107.5,112.5,117.5,117.5,82.5,-87.5,-87.5,82.5,125,-132.5,137.5,137.5,337.5,,
1,Noel Palma,M,SBD,MR-Jr,82.5,Raw,2002,,PA,81.1,205,220,225,225,127.5,-137.5,-137.5,127.5,230,247.5,260,260,612.5,,
2,Ethan Memming,M,SBD,MR-Jr,82.5,Raw,2001,,MO,78.7,210,217.5,-225,217.5,125,-130,130,130,240,252.5,-265,252.5,600,,
3,David Brown #23,M,SBD,MR-Jr,82.5,Raw,2002,,MO,81.8,205,210,215,215,115,-120,120,120,255,-265,-265,255,590,,
4,Marco Campioli,M,SBD,MR-Jr,82.5,Raw,2000,,MO,81.3,190,200,205,205,125,130,132.5,132.5,227.5,235,240,240,577.5,,
5,Theo Sharp,M,SBD,MR-Jr,82.5,Raw,1998,,KS,78.6,192.5,202.5,212.5,212.5,115,122.5,-125,122.5,220,230,-237.5,230,565,,
6,Edward Dong,M,SBD,MR-Jr,82.5,Raw,2002,,MO,80.55,170,182.5,-192.5,182.5,117.5,125,130,130,212.5,225,235,235,547.5,,
7,Jacob Wheelock,M,SBD,MR-Jr,82.5,Raw,2001,,MO,77.7,170,172.5,175,175,120,125,130,130,190,192.5,195,195,500,,
8,William Lay #3,M,SBD,MR-Jr,82.5,Raw,2002,,MO,78.7,157.5,167.5,-180,167.5,85,92.5,100,100,180,192.5,202.5,202.5,470,,
9,Jose Gutierrez,M,SBD,MR-Jr,82.5,Raw,2002,,IL,76,117.5,122.5,130,130,85,90,92.5,92.5,140,145,152.5,152.5,375,,
1,Zack Austin #1,M,SBD,MR-M1b,100,Raw,1974,,MO,99.1,177.5,195,207.5,207.5,127.5,137.5,147.5,147.5,202.5,222.5,-235,222.5,577.5,,
1,Jason Waggoner,M,SBD,MR-M1b,110,Raw,1974,,IL,107.35,180,195,205,205,132.5,140,145,145,187.5,202.5,-210,202.5,552.5,,
2,Anthony Weber,M,SBD,MR-M1b,110,Raw,1976,,MO,110,167.5,175,-182.5,175,102.5,107.5,-112.5,107.5,222.5,232.5,242.5,242.5,525,,
1,Tommy Scagliarini,M,SBD,MR-M2b,90,Raw,1966,,IL,88.6,172.5,185,200,200,117.5,120,125,125,182.5,200,-207.5,200,525,,
DQ,Steve Boly,M,SBD,MR-M2b,90,Raw,1964,,MO,89.65,145,150,157.5,157.5,92.5,,,92.5,177.5,-200,,177.5,,,
DQ,Steven Carpenter,M,SBD,MR-M2b,100,Raw,1966,,MO,97.15,-190,-190,-190,,-145,-145,-145,,,,,,,,
1,Rob Cook,M,SBD,MR-M2b,110,Raw,1967,,MO,103.1,192.5,-202.5,210,210,117.5,122.5,127.5,127.5,210,215,220,220,557.5,,
1,Matt Muccigrosso,M,SBD,MR-M3a,90,Raw,1959,,MO,85.85,185,197.5,202.5,202.5,-147.5,147.5,-152.5,147.5,220,232.5,237.5,237.5,587.5,,
1,Indiana Gray,M,SBD,MR-O,52,Raw,2006,,MO,50.9,115,125,132.5,132.5,72.5,-80,-80,72.5,127.5,137.5,-150,137.5,342.5,,
1,Henry Xiao,M,SBD,MR-O,60,Raw,2002,,MO,58.95,62.5,67.5,75,75,65,70,72.5,72.5,85,97.5,-107.5,97.5,245,,
1,Samuel Wheeler,M,SBD,MR-O,75,Raw,2001,,IL,74.35,215,220,227.5,227.5,-125,127.5,-132.5,127.5,260,-265,-265,260,615,,
2,Arjun Singh,M,SBD,MR-O,75,Raw,2003,,MO,73.4,195,210,220,220,110,117.5,120,120,210,222.5,230,230,570,,
3,Jonathan Nguyen,M,SBD,MR-O,75,Raw,1995,,IL,72.85,185,192.5,202.5,202.5,137.5,142.5,-147.5,142.5,215,-222.5,-222.5,215,560,,
4,Brett Price,M,SBD,MR-O,75,Raw,1999,,IL,72.35,170,182.5,187.5,187.5,102.5,-110,110,110,215,225,235,235,532.5,,
5,Austin Bievenue,M,SBD,MR-O,75,Raw,2002,,MO,72.8,160,172.5,182.5,182.5,115,125,132.5,132.5,170,185,192.5,192.5,507.5,,
6,Nicholas Ge,M,SBD,MR-O,75,Raw,2002,,MO,72.3,170,182.5,-187.5,182.5,95,100,102.5,102.5,205,215,-225,215,500,,
7,Caiden Sanford,M,SBD,MR-O,75,Raw,2005,,MO,70.5,165,175,-180,175,105,110,-115,110,200,207.5,-217.5,207.5,492.5,,
8,Andrew Allen,M,SBD,MR-O,75,Raw,2001,,IL,74.75,150,160,167.5,167.5,112.5,-117.5,,112.5,200,210,-220,210,490,,
9,Aaron Wells,M,SBD,MR-O,75,Raw,2002,,IL,70.5,152.5,157.5,165,165,97.5,102.5,-105,102.5,202.5,-212.5,-212.5,202.5,470,,
10,Aaron Maze,M,SBD,MR-O,75,Raw,2003,,IL,72.05,150,-170,170,170,112.5,122.5,130,130,150,170,-177.5,170,470,,
11,Eric Valdez,M,SBD,MR-O,75,Raw,2007,,MO,70.1,170,-180,-180,170,100,-102.5,-102.5,100,185,192.5,-200,192.5,462.5,,
12,Blake Heller,M,SBD,MR-O,75,Raw,2002,,MO,71,150,160,165,165,95,100,102.5,102.5,162.5,175,187.5,187.5,455,,
13,Will Austin,M,SBD,MR-O,75,Raw,2002,,MO,71.3,137.5,147.5,157.5,157.5,105,112.5,122.5,122.5,127.5,140,160,160,440,,
14,Ayden Stevens,M,SBD,MR-O,75,Raw,2007,,MO,69.65,150,160,-170,160,-90,90,95,95,155,165,182.5,182.5,437.5,,
15,Stephane Cui,M,SBD,MR-O,75,Raw,2003,,MO,73.9,120,127.5,137.5,137.5,-87.5,87.5,92.5,92.5,160,170,182.5,182.5,412.5,,
16,Jordan Bradstreet,M,SBD,MR-O,75,Raw,2002,,OH,72.4,137.5,145,-150,145,70,75,-77.5,75,150,162.5,175,175,395,,
17,Jack Van Gorkom,M,SBD,MR-O,75,Raw,2005,,IL,74.1,130,137.5,142.5,142.5,70,-72.5,-75,70,150,162.5,172.5,172.5,385,,
18,Noah Taylor,M,SBD,MR-O,75,Raw,2004,,MO,73.5,135,142.5,-152.5,142.5,85,87.5,92.5,92.5,125,137.5,-152.5,137.5,372.5,,
19,Geoffrey Lien,M,SBD,MR-O,75,Raw,2002,,NY,69.8,110,117.5,122.5,122.5,77.5,80,85,85,140,150,157.5,157.5,365,,
20,Nicholas Etter,M,SBD,MR-O,75,Raw,1997,,IL,74.85,-97.5,97.5,105,105,72.5,80,85,85,125,140,152.5,152.5,342.5,,
DQ,Drewd Aladdin,M,SBD,MR-O,75,Raw,2005,,MO,73.5,130,137.5,147.5,147.5,80,-85,-85,80,-185,-185,,,,,
1,Tadriaun Logan,M,SBD,MR-O,90,Raw,1989,,MO,88.3,255,275,-287.5,275,170,175,-177.5,175,290,310,-320,310,760,,
2,Jason Burns,M,SBD,MR-O,90,Raw,2001,,IL,87.9,212.5,222.5,230,230,107.5,112.5,-117.5,112.5,257.5,265,272.5,272.5,615,,
3,Matt Muccigrosso,M,SBD,MR-O,90,Raw,1959,,MO,85.85,185,197.5,202.5,202.5,-147.5,147.5,-152.5,147.5,220,232.5,237.5,237.5,587.5,,
4,Dane Huck,M,SBD,MR-O,90,Raw,1997,,MO,84,165,177.5,185,185,122.5,-125,127.5,127.5,215,227.5,232.5,232.5,545,,
5,Tommy Scagliarini,M,SBD,MR-O,90,Raw,1966,,IL,88.6,172.5,185,200,200,117.5,120,125,125,182.5,200,-207.5,200,525,,
6,Lukaus Steinnerd,M,SBD,MR-O,90,Raw,2007,,MO,85.5,185,187.5,192.5,192.5,120,-127.5,-127.5,120,185,192.5,200,200,512.5,,
7,Samuel Cohen,M,SBD,MR-O,90,Raw,2001,,MO,86.9,170,180,-185,180,122.5,130,137.5,137.5,170,182.5,192.5,192.5,510,,
8,Carter Clark,M,SBD,MR-O,90,Raw,1998,,TX,89,-162.5,162.5,172.5,172.5,92.5,100,-107.5,100,-170,177.5,187.5,187.5,460,,
DQ,Steve Boly,M,SBD,MR-O,90,Raw,1964,,MO,89.65,145,150,157.5,157.5,92.5,,,92.5,177.5,-200,,177.5,,,
1,Edward Meixner,M,SBD,MR-O,100,Raw,1995,,MO,95.8,270,280,290,290,180,185,190,190,292.5,307.5,-320,307.5,787.5,,
2,Daniel Filipek,M,SBD,MR-O,100,Raw,1997,,MO,95.1,245,260,272.5,272.5,147.5,157.5,162.5,162.5,270,285,300,300,735,,
3,Braden Hasty,M,SBD,MR-O,100,Raw,2000,,IL,94.8,210,230,237.5,237.5,135,145,155,155,225,240,250,250,642.5,,
4,Nathan Hall,M,SBD,MR-O,100,Raw,2003,,MO,95.5,190,200,210,210,115,122.5,130,130,215,227.5,240,240,580,,
5,Brendon Davis #1,M,SBD,MR-O,100,Raw,1998,,MD,98.6,210,220,-227.5,220,130,-137.5,-137.5,130,210,220,227.5,227.5,577.5,,
6,Zack Austin #1,M,SBD,MR-O,100,Raw,1974,,MO,99.1,177.5,195,207.5,207.5,127.5,137.5,147.5,147.5,202.5,222.5,-235,222.5,577.5,,
7,Benjamin Fiala,M,SBD,MR-O,100,Raw,1992,,MO,97.1,167.5,177.5,182.5,182.5,127.5,132.5,-135,132.5,235,245,-252.5,245,560,,
8,Matthew Gremaud,M,SBD,MR-O,100,Raw,2002,,MO,93.6,165,-177.5,182.5,182.5,105,112.5,120,120,205,220,235,235,537.5,,
9,Jacob Ray,M,SBD,MR-O,100,Raw,2000,,IL,91.2,-172.5,185,195,195,130,140,-150,140,180,187.5,200,200,535,,
10,Andrew Connor,M,SBD,MR-O,100,Raw,1990,,MO,98.05,142.5,157.5,162.5,162.5,110,117.5,-125,117.5,182.5,197.5,-207.5,197.5,477.5,,
11,Zachary Leon,M,SBD,MR-O,100,Raw,1994,,TN,97.1,-140,140,155,155,-100,-107.5,107.5,107.5,142.5,160,187.5,187.5,450,,
12,Peter Andrews,M,SBD,MR-O,100,Raw,1993,,MO,97.5,147.5,-152.5,-157.5,147.5,110,-115,,110,177.5,182.5,187.5,187.5,445,,
13,Alexander Phillip,M,SBD,MR-O,100,Raw,2004,,MO,98.35,142.5,152.5,162.5,162.5,-90,90,102.5,102.5,152.5,165,-175,165,430,,
DQ,Steven Carpenter,M,SBD,MR-O,100,Raw,1966,,MO,97.15,-190,-190,-190,,-145,-145,-145,,,,,,,,
1,Connor Parks,M,SBD,MR-O,110,Raw,2001,,MO,108.3,275,285,-292.5,285,177.5,187.5,-195,187.5,285,300,317.5,317.5,790,,
2,Ryan Lei,M,SBD,MR-O,110,Raw,1998,,WA,109.7,225,237.5,245,245,157.5,165,172.5,172.5,225,237.5,250,250,667.5,,
3,Caleb Rice,M,SBD,MR-O,110,Raw,2000,,IL,107.05,210,227.5,232.5,232.5,-135,147.5,-157.5,147.5,220,232.5,240,240,620,,
4,Victor White,M,SBD,MR-O,110,Raw,2001,,MO,106.8,180,195,-210,195,140,147.5,-155,147.5,235,255,-265,255,597.5,,
5,Rob Cook,M,SBD,MR-O,110,Raw,1967,,MO,103.1,192.5,-202.5,210,210,117.5,122.5,127.5,127.5,210,215,220,220,557.5,,
6,Jason Waggoner,M,SBD,MR-O,110,Raw,1974,,IL,107.35,180,195,205,205,132.5,140,145,145,187.5,202.5,-210,202.5,552.5,,
7,Anthony Weber,M,SBD,MR-O,110,Raw,1976,,MO,110,167.5,175,-182.5,175,102.5,107.5,-112.5,107.5,222.5,232.5,242.5,242.5,525,,
8,Tariq Jassim,M,SBD,MR-O,110,Raw,2004,,MO,104,170,182.5,190,190,127.5,-137.5,-137.5,127.5,175,185,-200,185,502.5,,
9,Alberto Valencia,M,SBD,MR-O,110,Raw,2004,,IL,101.3,170,175,182.5,182.5,110,115,117.5,117.5,182.5,185,187.5,187.5,487.5,,
10,Owen Reinhart,M,SBD,MR-O,110,Raw,2001,,MO,105.95,117.5,-127.5,132.5,132.5,-105,110,-120,110,145,170,182.5,182.5,425,,
DQ,Kade Schaefer,M,SBD,MR-O,110,Raw,2007,,MO,102.25,-140,-152.5,152.5,152.5,,,,,-175,-175,,,,,
DQ,Tyler Davis,M,SBD,MR-O,110,Raw,1999,,IL,106.5,-295,305,-320,305,-170,-175,-175,,295,305,315,315,,,
1,Joseph Brumleve,M,SBD,MR-O,125,Raw,2001,,IL,118.8,210,225,-235,225,145,155,-165,155,235,250,265,265,645,,
1,Rayvon Redmond,M,SBD,MR-O,140,Raw,2005,,MO,138.5,220,232.5,-242.5,232.5,170,180,-182.5,180,220,-235,245,245,657.5,,
1,Nate Collier,M,SBD,MR-O,140+,Raw,1996,,IL,148.6,247.5,265,-277.5,265,152.5,160,165,165,200,237.5,-247.5,237.5,667.5,,
2,Jowallace Rotellini,M,SBD,MR-O,140+,Raw,1988,,MO,157.8,205,215,222.5,222.5,160,-170,-170,160,210,220,225,225,607.5,,
3,Garret Fry,M,SBD,MR-O,140+,Raw,1993,,MO,149,165,180,200,200,115,122.5,130,130,145,170,200,200,530,,
1,Jack Hammock,M,SBD,MR-O,67.5,Raw,2007,,IL,66.45,142.5,160,167.5,167.5,-82.5,82.5,90,90,142.5,162.5,177.5,177.5,435,,
2,Tomas Esquivel,M,SBD,MR-O,67.5,Raw,2007,,TN,65.3,147.5,155,-170,155,92.5,100,102.5,102.5,137.5,147.5,155,155,412.5,,
3,Nihar Murali,M,SBD,MR-O,67.5,Raw,2005,,MO,64,132.5,137.5,140,140,42.5,50,52.5,52.5,142.5,152.5,157.5,157.5,350,,
4,Landyn Shonk,M,SBD,MR-O,67.5,Raw,2001,,IL,67.2,107.5,112.5,117.5,117.5,82.5,-87.5,-87.5,82.5,125,-132.5,137.5,137.5,337.5,,
5,Jomar Perez,M,SBD,MR-O,67.5,Raw,2006,,MO,61.5,-60,60,-115,60,42.5,55,-75,55,140,147.5,150,150,265,,
1,Noel Palma,M,SBD,MR-O,82.5,Raw,2002,,PA,81.1,205,220,225,225,127.5,-137.5,-137.5,127.5,230,247.5,260,260,612.5,,
2,Ethan Memming,M,SBD,MR-O,82.5,Raw,2001,,MO,78.7,210,217.5,-225,217.5,125,-130,130,130,240,252.5,-265,252.5,600,,
3,David Brown #23,M,SBD,MR-O,82.5,Raw,2002,,MO,81.8,205,210,215,215,115,-120,120,120,255,-265,-265,255,590,,
4,Marco Campioli,M,SBD,MR-O,82.5,Raw,2000,,MO,81.3,190,200,205,205,125,130,132.5,132.5,227.5,235,240,240,577.5,,
5,Theo Sharp,M,SBD,MR-O,82.5,Raw,1998,,KS,78.6,192.5,202.5,212.5,212.5,115,122.5,-125,122.5,220,230,-237.5,230,565,,
6,Ian Cox #4,M,SBD,MR-O,82.5,Raw,1997,,MO,79.3,182.5,192.5,-205,192.5,122.5,132.5,-140,132.5,200,215,227.5,227.5,552.5,,
7,Charles Fioriglio,M,SBD,MR-O,82.5,Raw,2004,,FL,77.8,-187.5,192.5,200,200,120,127.5,-130,127.5,210,220,-227.5,220,547.5,,
8,Edward Dong,M,SBD,MR-O,82.5,Raw,2002,,MO,80.55,170,182.5,-192.5,182.5,117.5,125,130,130,212.5,225,235,235,547.5,,
9,Jacob Wheelock,M,SBD,MR-O,82.5,Raw,2001,,MO,77.7,170,172.5,175,175,120,125,130,130,190,192.5,195,195,500,,
10,Neil Panwalker,M,SBD,MR-O,82.5,Raw,2003,,TX,80.7,160,175,182.5,182.5,95,102.5,105,105,185,195,205,205,492.5,,
11,Derek Dixon,M,SBD,MR-O,82.5,Raw,1990,,MO,78.75,160,172.5,-182.5,172.5,110,115,120,120,165,175,185,185,477.5,,
12,Gregory Sanders,M,SBD,MR-O,82.5,Raw,1997,,IL,81.05,-152.5,152.5,165,165,112.5,117.5,-125,117.5,165,175,190,190,472.5,,
13,Kolton Smith,M,SBD,MR-O,82.5,Raw,2007,,IL,81.4,165,-185,190,190,82.5,92.5,-97.5,92.5,165,185,190,190,472.5,,
14,William Lay #3,M,SBD,MR-O,82.5,Raw,2002,,MO,78.7,157.5,167.5,-180,167.5,85,92.5,100,100,180,192.5,202.5,202.5,470,,
15,Jose Gutierrez,M,SBD,MR-O,82.5,Raw,2002,,IL,76,117.5,122.5,130,130,85,90,92.5,92.5,140,145,152.5,152.5,375,,
1,Eric Valdez,M,SBD,MR-T1,75,Raw,2007,,MO,70.1,170,-180,-180,170,100,-102.5,-102.5,100,185,192.5,-200,192.5,462.5,,
2,Ayden Stevens,M,SBD,MR-T1,75,Raw,2007,,MO,69.65,150,160,-170,160,-90,90,95,95,155,165,182.5,182.5,437.5,,
1,Lukaus Steinnerd,M,SBD,MR-T1,90,Raw,2007,,MO,85.5,185,187.5,192.5,192.5,120,-127.5,-127.5,120,185,192.5,200,200,512.5,,
DQ,Kade Schaefer,M,SBD,MR-T1,110,Raw,2007,,MO,102.25,-140,-152.5,152.5,152.5,,,,,-175,-175,,,,,
1,Jack Hammock,M,SBD,MR-T1,67.5,Raw,2007,,IL,66.45,142.5,160,167.5,167.5,-82.5,82.5,90,90,142.5,162.5,177.5,177.5,435,,
2,Tomas Esquivel,M,SBD,MR-T1,67.5,Raw,2007,,TN,65.3,147.5,155,-170,155,92.5,100,102.5,102.5,137.5,147.5,155,155,412.5,,
1,Kolton Smith,M,SBD,MR-T1,82.5,Raw,2007,,IL,81.4,165,-185,190,190,82.5,92.5,-97.5,92.5,165,185,190,190,472.5,,
1,Indiana Gray,M,SBD,MR-T2,52,Raw,2006,,MO,50.9,115,125,132.5,132.5,72.5,-80,-80,72.5,127.5,137.5,-150,137.5,342.5,,
1,Caiden Sanford,M,SBD,MR-T2,75,Raw,2005,,MO,70.5,165,175,-180,175,105,110,-115,110,200,207.5,-217.5,207.5,492.5,,
2,Jack Van Gorkom,M,SBD,MR-T2,75,Raw,2005,,IL,74.1,130,137.5,142.5,142.5,70,-72.5,-75,70,150,162.5,172.5,172.5,385,,
DQ,Drewd Aladdin,M,SBD,MR-T2,75,Raw,2005,,MO,73.5,130,137.5,147.5,147.5,80,-85,-85,80,-185,-185,,,,,
1,Rayvon Redmond,M,SBD,MR-T2,140,Raw,2005,,MO,138.5,220,232.5,-242.5,232.5,170,180,-182.5,180,220,-235,245,245,657.5,,
1,Nihar Murali,M,SBD,MR-T2,67.5,Raw,2005,,MO,64,132.5,137.5,140,140,42.5,50,52.5,52.5,142.5,152.5,157.5,157.5,350,,
2,Jomar Perez,M,SBD,MR-T2,67.5,Raw,2006,,MO,61.5,-60,60,-115,60,42.5,55,-75,55,140,147.5,150,150,265,,
1,Arjun Singh,M,SBD,MR-T3,75,Raw,2003,,MO,73.4,195,210,220,220,110,117.5,120,120,210,222.5,230,230,570,,
2,Aaron Maze,M,SBD,MR-T3,75,Raw,2003,,IL,72.05,150,-170,170,170,112.5,122.5,130,130,150,170,-177.5,170,470,,
3,Stephane Cui,M,SBD,MR-T3,75,Raw,2003,,MO,73.9,120,127.5,137.5,137.5,-87.5,87.5,92.5,92.5,160,170,182.5,182.5,412.5,,
4,Noah Taylor,M,SBD,MR-T3,75,Raw,2004,,MO,73.5,135,142.5,-152.5,142.5,85,87.5,92.5,92.5,125,137.5,-152.5,137.5,372.5,,
1,Nathan Hall,M,SBD,MR-T3,100,Raw,2003,,MO,95.5,190,200,210,210,115,122.5,130,130,215,227.5,240,240,580,,
2,Alexander Phillip,M,SBD,MR-T3,100,Raw,2004,,MO,98.35,142.5,152.5,162.5,162.5,-90,90,102.5,102.5,152.5,165,-175,165,430,,
1,Tariq Jassim,M,SBD,MR-T3,110,Raw,2004,,MO,104,170,182.5,190,190,127.5,-137.5,-137.5,127.5,175,185,-200,185,502.5,,
2,Alberto Valencia,M,SBD,MR-T3,110,Raw,2004,,IL,101.3,170,175,182.5,182.5,110,115,117.5,117.5,182.5,185,187.5,187.5,487.5,,
1,Charles Fioriglio,M,SBD,MR-T3,82.5,Raw,2004,,FL,77.8,-187.5,192.5,200,200,120,127.5,-130,127.5,210,220,-227.5,220,547.5,,
2,Neil Panwalker,M,SBD,MR-T3,82.5,Raw,2003,,TX,80.7,160,175,182.5,182.5,95,102.5,105,105,185,195,205,205,492.5,,
