Name,Sex,BodyweightKg,WeightClassKg,BirthDate,Age,Division,Equipment,Best3SquatKg,Best3BenchKg,Best3DeadliftKg,TotalKg,Event,Place
Nikki Button,F,55.07,56,,30,Amateur Open,Raw,102.06,63.5,145.15,310.71,SBD,1
Eriche Sarvay,F,59.42,60,,28,Amateur Open,Raw,113.4,43.09,136.08,292.57,SBD,2
Jen Hazzard,F,58.88,60,,36,Pro Open,Wraps,174.63,104.33,238.14,517.1,SBD,1
Jen Hazzard,F,58.88,60,,36,Pro Submasters 35-39,Wraps,174.63,104.33,238.14,517.1,SBD,1
Maya Polocck,F,66.86,67.5,,23,Amateur Juniors 20-23,Raw,127.01,92.99,161.03,381.02,SBD,1
Madisyn Lee,F,72.76,75,,23,Amateur Juniors 20-23,Raw,111.13,49.9,120.2,281.23,SBD,1
Cara Adrianos,F,74.84,75,,30,Amateur Open,Raw,127.01,81.65,138.35,347,SBD,1
Amanda Unz,F,74.8,75,,36,Pro Submasters 35-39,Wraps,165.56,92.99,210.92,469.47,SBD,1
Cecilee Cashman,F,98.34,100,,30,Amateur Open,Raw,115.67,74.84,136.08,326.59,SBD,1
Jason Herman,M,51.35,52,,,Amateur Open,Raw,,49.9,90.72,140.61,BD,1
Nathan Duda,M,62.51,67.5,,21,Amateur Juniors 20-23,Raw,,106.59,,106.59,B,1
Elijah Skinner,M,65.91,67.5,,17,Amateur Teen 16-17,Raw,154.22,99.79,188.24,442.25,SBD,1
Daryl Johnson,M,64,67.5,,30,Pro Open,Wraps,161.03,83.91,185.97,430.91,SBD,1
Joe Rosato,M,74.62,75,,51,Amateur Masters 50-54,Wraps,233.6,145.15,238.14,616.89,SBD,1
Owen Callahan,M,68.67,75,,16,Amateur Teen 16-17,Wraps,204.12,113.4,185.97,503.49,SBD,1
Jack Longo,M,81.65,82.5,,18,Amateur Teen 18-19,Wraps,265.35,124.74,256.28,646.37,SBD,1
Harry Williams,M,87.72,90,,21,Amateur Juniors 20-23,Raw,199.58,147.42,254.01,601.01,SBD,1
Michael Sportello,M,89.04,90,,21,Amateur Juniors 20-23,Raw,183.7,142.88,226.8,553.38,SBD,2
Gabe Hills,M,89.22,90,,43,Amateur Masters 40-44,Raw,,111.13,195.04,306.17,BD,1
Blake Goggin,M,89.81,90,,,Amateur Open,Raw,,54.43,142.88,197.31,BD,1
Jack DeMinno,M,89.81,90,,26,Amateur Open,Raw,,,301.64,301.64,D,1
Gary Casab,M,89.68,90,,23,Pro Juniors 20-23,Wraps,299.37,190.51,290.3,780.18,SBD,1
Tom Knuth,M,87.36,90,,67,Pro Masters 65-69,Raw,,102.06,,102.06,B,1
Gary Casab,M,89.68,90,,23,Pro Open,Wraps,299.37,190.51,290.3,780.18,SBD,1
Robert Mineo,M,98.38,100,,44,Amateur Masters 40-44,Raw,156.49,161.03,208.65,526.17,SBD,1
Joe Zambito,M,94.12,100,,26,Amateur Open,Raw,197.31,131.54,240.4,569.26,SBD,2
Blaine Stottlar,M,99.34,100,,29,Amateur Open,Raw,281.23,117.93,263.08,662.24,SBD,1
Jonathan Ming,M,92.26,100,,17,Amateur Teen 16-17,Raw,,90.72,,90.72,B,1
Ed DiBari,M,97.52,100,,55,Pro Masters 55-59,Wraps,254.01,170.1,272.16,696.26,SBD,1
Nick Labella,M,95.03,100,,24,Pro Open,Wraps,263.08,145.15,283.5,691.73,SBD,1
James Wheeler #1,M,99.79,100,,24,Pro Open,Wraps,233.6,174.63,256.28,664.51,SBD,2
Brandon Mayfield,M,104.24,110,,23,Amateur Juniors 20-23,Raw,278.96,154.22,258.55,691.73,SBD,1
Robert Cushman,M,103.74,110,,58,Amateur Masters 55-59,Unlimited,,258.55,,258.55,B,1
Andrew Patterson,M,105.73,110,,31,Amateur Open,Raw,222.26,131.54,235.87,589.67,SBD,1
Mark Yarwood,M,106.91,110,,,Amateur Open,Raw,,56.7,90.72,147.42,BD,1
Mynor Gonzalez,M,108.95,110,,30,Amateur Open,Multi-ply,335.66,219.99,294.84,850.49,SBD,1
Keith O'Dell,M,107.68,110,,40,Pro Masters 40-44,Unlimited,,433.18,,433.18,B,1
Mark Chieco,M,107.82,110,,45,Pro Masters 45-49,Wraps,342.46,229.06,272.16,843.68,SBD,1
Rob Francis,M,108.73,110,,59,Pro Masters 55-59,Wraps,204.12,208.65,204.12,616.89,SBD,1
Alex Alexander,M,108.86,110,,33,Pro Open,Raw,,215.46,342.46,557.92,BD,1
Matt Nagurney,M,107.59,110,,37,Pro Submasters 35-39,Raw,,204.12,,204.12,B,1
David Narsingh,M,123.29,125,,23,Amateur Juniors 20-23,Raw,299.37,204.12,294.84,798.32,SBD,1
Adam Rush,M,123.51,125,,20,Amateur Juniors 20-23,Raw,219.99,174.63,249.48,644.1,SBD,2
Jordan Schachtler,M,111.58,125,,,Amateur Open,Raw,,72.57,117.93,190.51,BD,1
Carl Anessa,M,113.04,125,,,Amateur Open,Raw,,61.23,83.91,145.15,BD,2
Tom Brown,M,120.97,125,,36,Amateur Submasters 35-39,Raw,181.44,113.4,206.38,501.22,SBD,1
Alex Kenneson,M,111.31,125,,19,Amateur Teen 18-19,Raw,217.72,147.42,240.4,605.55,SBD,1
Erik Balogh,M,117.98,125,,51,Pro Masters 50-54,Wraps,226.8,183.7,215.46,625.96,SBD,1
John Bogart,M,122.65,125,,51,Pro Masters 50-54,Unlimited,,328.85,,328.85,B,1
Ryan Danielski,M,113.04,125,,31,Pro Open,Raw,206.38,156.49,235.87,598.74,SBD,2
Bob Merkh,M,123.92,125,,38,Pro Open,Unlimited,,498.95,,498.95,B,1
Shane Hachey,M,124.06,125,,31,Pro Open,Raw,317.51,231.33,317.51,866.36,SBD,1
Rob Gerling,M,125.92,140,,36,Pro Open,Raw,217.72,161.03,240.4,619.15,SBD,3
Jason Weaver,M,132.81,140,,46,Pro Open,Raw,317.51,215.46,317.51,850.49,SBD,1
Anthony Gifune,M,136.62,140,,29,Pro Open,Wraps,294.84,208.65,290.3,793.79,SBD,2
Kevin Barrows,M,167.83,140+,,53,Amateur Masters 50-54,Raw,,165.56,197.31,362.87,BD,1
Glen Mucica,M,140.3,140+,,64,Amateur Masters 60-64,Raw,,170.1,229.06,399.16,BD,1
Nick McRedmond,M,158.76,140+,,,Amateur Open,Raw,,90.72,183.7,274.42,BD,1
Pat McNamara,M,141.11,140+,,27,Pro Open,Wraps,342.46,142.88,319.78,805.13,SBD,1
