Place,Name,Sex,BirthDate,Age,Country,State,Equipment,Division,BodyweightKg,WeightClassKg,Squat1Kg,Squat2Kg,Squat3Kg,Best3SquatKg,Bench1Kg,Bench2Kg,Bench3Kg,Best3BenchKg,Deadlift1Kg,Deadlift2Kg,Deadlift3Kg,Best3DeadliftKg,TotalKg,Event
1,Gina Wright,F,1995-04-12,27,USA,AL,Raw,F_OR_APF,56,56,77.5,87.5,-100,87.5,52.5,60,-62.5,60,85,102.5,122.5,122.5,270,SBD
1,Nicole Goins,F,1980-09-26,41,USA,TN,Wraps,F_MCR_1_APF,117,110+,172.5,185,-195,185,82.5,92.5,97.5,97.5,172.5,182.5,190,190,472.5,SBD
1,Nickie Brillon,F,1994-10-18,27,USA,TN,Raw,F_OCR_APF,72.2,75,107.5,117.5,-125,117.5,87.5,92.5,-95,92.5,130,140,-150,140,350,SBD
1,Brittany Reed,F,1991-08-27,30,USA,TN,Raw,F_OCR_APF,80.9,82.5,120,130,137.5,137.5,85,-90,-90,85,150,-170,170,170,392.5,SBD
1,Michelle Taylor,F,1986-03-16,36,USA,TN,Raw,F_OCR_APF,87,90,102.5,110,120,120,52.5,62.5,-70,62.5,125,132.5,150,150,332.5,SBD
1,Nicole Goins,F,1980-09-26,41,USA,TN,Wraps,F_OCR_APF,117,110+,172.5,185,-195,185,82.5,92.5,97.5,97.5,172.5,182.5,190,190,472.5,SBD
1,Cameka Freeman,F,1995-03-15,27,USA,TN,Raw,F_OCR_APF,98.1,100,-92.5,-92.5,92.5,92.5,65,70,75,75,120,125,130,130,297.5,SBD
1,Sonya Kennedy,F,1983-08-09,38,USA,TN,Wraps,F_SCR_APF,64.4,67.5,120,127.5,-137.5,127.5,70,72.5,75,75,125,132.5,-137.5,132.5,335,SBD
1,Michelle Taylor,F,1986-03-16,36,USA,TN,Raw,F_SCR_APF,87,90,102.5,110,120,120,52.5,62.5,-70,62.5,125,132.5,150,150,332.5,SBD
1,Kody Bonner,M,1992-05-04,30,USA,TN,Raw,M_OR_APF,114.3,125,140,150,160,160,112.5,117.5,125,125,182.5,200,215,215,500,SBD
1,Christian Frederick,M,1999-04-10,23,USA,TN,Wraps,M_JCR_APF,111.4,125,-145,160,185,185,-100,100,112.5,112.5,185,205,227.5,227.5,525,SBD
1,Jirka Kauer,M,1979-08-16,42,USA,TN,Raw,M_MCR_1_APF,88.3,90,217.5,230,240,240,-120,127.5,-135,127.5,217.5,240,-255,240,607.5,SBD
1,Josh Girdler,M,1980-04-22,42,USA,TN,Wraps,M_MCR_1_APF,97.3,100,232.5,247.5,260,260,155,-165,-165,155,262.5,272.5,-282.5,272.5,687.5,SBD
1,Prince Kennedy,M,1964-08-09,57,Nigeria,,Wraps,M_MCR_4_APF,80.9,82.5,180,200,-215,200,80,-100,100,100,200,-220,220,220,520,SBD
1,Tyler Holdcraft,M,1998-01-20,24,USA,TN,Wraps,M_OCR_APF,76.3,82.5,235,237.5,-240,237.5,135,140,142.5,142.5,217.5,235,-252.5,235,615,SBD
2,Prince Kennedy,M,1964-08-09,57,Nigeria,,Wraps,M_OCR_APF,80.9,82.5,180,200,-215,200,80,-100,100,100,200,-220,220,220,520,SBD
1,Kevin McLeod,M,1983-10-10,38,USA,SC,Raw,M_OCR_APF,86.1,90,185,205,220,220,-142.5,145,152.5,152.5,192.5,227.5,245,245,617.5,SBD
2,Jirka Kauer,M,1979-08-16,42,USA,TN,Raw,M_OCR_APF,88.3,90,217.5,230,240,240,-120,127.5,-135,127.5,217.5,240,-255,240,607.5,SBD
3,Morgan Marable,M,1993-10-31,28,USA,TN,Raw,M_OCR_APF,84.8,90,177.5,192.5,205,205,130,137.5,-142.5,137.5,225,237.5,-242.5,237.5,580,SBD
1,Josh Girdler,M,1980-04-22,42,USA,TN,Wraps,M_OCR_APF,97.3,100,232.5,247.5,260,260,155,-165,-165,155,262.5,272.5,-282.5,272.5,687.5,SBD
1,Clay Sweeney,M,1992-02-20,30,USA,TN,Wraps,M_OCR_APF,109.8,110,285,-300,-300,285,175,185,-192.5,185,227.5,272.5,317.5,317.5,787.5,SBD
1,Wes Clark,M,1993-01-04,29,USA,TN,Raw,M_OCR_APF,114.8,125,252.5,265,272.5,272.5,165,175,-182.5,175,277.5,287.5,297.5,297.5,745,SBD
2,Joshua Tebbs,M,1973-05-09,49,USA,SC,Raw,M_OCR_APF,121.8,125,-167.5,167.5,177.5,177.5,140,150,155,155,207.5,227.5,232.5,232.5,565,SBD
1,D'Anthony Davis,M,1997-05-09,25,USA,TN,Wraps,M_OCR_APF,133.1,140,272.5,287.5,300,300,137.5,147.5,155,155,272.5,295,-297.5,295,750,SBD
1,Tommy Haun,M,1992-10-03,29,USA,TN,Raw,M_OCR_APF,177.3,140+,-237.5,245,257.5,257.5,147.5,157.5,-160,157.5,227.5,250,252.5,252.5,667.5,SBD
1,Prince Kennedy,M,1964-08-09,57,Nigeria,,Raw,M_OR_APF,80.9,82.5,180,200,-215,200,80,-100,100,100,200,-220,220,220,520,SBD
1,Matthew Greene,M,2006-04-27,16,USA,TN,Raw,M_TCR_2_APF,73.7,75,180,-197.5,-197.5,180,102.5,107.5,-110,107.5,185,200,-205,200,487.5,SBD
1,Rob King,M,2005-12-13,16,USA,IL,Wraps,M_TCR_2_APF,72.3,75,175,-182.5,182.5,182.5,82.5,92.5,-95,92.5,200,-212.5,-212.5,200,475,SBD
1,Jonathan Little,M,2004-08-04,17,USA,TN,Wraps,M_TCR_2_APF,105.7,110,165,-172.5,172.5,172.5,97.5,105,-107.5,105,165,180,185,185,462.5,SBD
1,Dalton Dodd,M,2004-02-24,18,USA,TN,Raw,M_TCR_3_APF,74.1,75,135,147.5,157.5,157.5,100,107.5,112.5,112.5,137.5,147.5,155,155,425,SBD
1,Parker Dyche,M,2003-08-17,18,USA,TN,Raw,M_TCR_3_APF,79.6,82.5,137.5,-147.5,147.5,147.5,92.5,97.5,105,105,140,152.5,160,160,412.5,SBD
1,Dawson Rushing,M,2004-02-01,18,USA,TN,Raw,M_TCR_3_APF,86.8,90,-142.5,147.5,162.5,162.5,105,110,-117.5,110,170,182.5,192.5,192.5,465,SBD
1,Jacob Keith,M,1998-08-27,23,USA,TN,Multi-ply,M_JEM_APF,80.4,82.5,285,-302.5,302.5,302.5,190,205,-207.5,205,187.5,205,227.5,227.5,735,SBD
1,Brennan McDaniel,M,,,USA,TN,Multi-ply,M_JEM_APF,88.1,90,312.5,337.5,-367.5,337.5,220,230,-240,230,227.5,255,275,275,842.5,SBD
1,Wil Jones,M,2002-05-31,20,USA,TN,Multi-ply,M_JEM_APF,122.1,125,340,362.5,-385,362.5,190,-197.5,-197.5,190,227.5,240,-255,240,792.5,SBD
1,Jordan Fender,M,1994-02-16,28,USA,NC,Multi-ply,M_OEM_APF,93,100,365,400,-420,400,260,275,287.5,287.5,-275,287.5,-312.5,287.5,975,SBD
1,Prince Kennedy,M,1964-08-09,57,Nigeria,,Raw,M_MR_4_APF,80.9,82.5,,,,,,,,,200,-220,220,220,220,D
1,Prince Kennedy,M,1964-08-09,57,Nigeria,,Raw,M_OR_APF,80.9,82.5,,,,,,,,,200,-220,220,220,220,D
